BT_quartus/counter_4bit/bt/simulation/qsim/bt.msim.vcd
$comment
	File created using the following command:
		vcd file bt.msim.vcd -direction
$end
$date
	Sat Apr 10 13:37:39 2021
$end
$version
	ModelSim Version 10.1d
$end
$timescale
	1ps
$end
$scope module bt_vlg_vec_tst $end
$var reg 1 ! a $end
$var reg 1 " b $end
$var reg 1 # c $end
$var reg 1 $ d0 $end
$var reg 1 % d1 $end
$var reg 1 & d2 $end
$var reg 1 ' d3 $end
$var reg 1 ( d4 $end
$var reg 1 ) d5 $end
$var reg 1 * d6 $end
$var reg 1 + d7 $end
$var wire 1 , y $end
$var wire 1 - sampler $end
$scope module i1 $end
$var wire 1 . gnd $end
$var wire 1 / vcc $end
$var wire 1 0 unknown $end
$var tri1 1 1 devclrn $end
$var tri1 1 2 devpor $end
$var tri1 1 3 devoe $end
$var wire 1 4 d6~combout $end
$var wire 1 5 b~combout $end
$var wire 1 6 d0~combout $end
$var wire 1 7 d4~combout $end
$var wire 1 8 a~combout $end
$var wire 1 9 y~0_combout $end
$var wire 1 : d1~combout $end
$var wire 1 ; d5~combout $end
$var wire 1 < y~1_combout $end
$var wire 1 = y~2_combout $end
$var wire 1 > d3~combout $end
$var wire 1 ? d7~combout $end
$var wire 1 @ y~4_combout $end
$var wire 1 A d2~combout $end
$var wire 1 B c~combout $end
$var wire 1 C y~3_combout $end
$var wire 1 D y~5_combout $end
$upscope $end
$upscope $end
$enddefinitions $end
#0
$dumpvars
0!
0"
0#
0$
0%
0&
0'
0(
0)
0*
0+
0,
x-
0.
1/
x0
11
12
13
04
05
06
07
08
09
0:
0;
0<
0=
0>
0?
0@
0A
0B
0C
0D
$end
#10000
1$
16
0-
19
1=
1D
1,
#50000
1!
1'
1(
18
1>
17
1-
1@
09
0=
0D
0,
#70000
1+
1?
0-
#80000
1"
1#
15
1B
1-
1D
1,
#220000
1*
14
0-
#230000
0$
06
1-
#270000
1%
1&
0+
1:
1A
0?
0-
0@
0D
0,
#280000
0!
08
1-
1C
19
1D
1,
#320000
0"
0#
05
0B
0-
0D
1=
09
1D
0=
0,
0D
1,
0,
#340000
1!
18
1-
0C
1@
1<
1=
1D
1,
#380000
0*
04
0-
#420000
0'
0(
0>
07
1-
0@
#430000
1"
1#
0!
15
1B
08
0-
0=
0<
0D
0,
#520000
1)
1;
1-
#680000
0%
0&
0:
0A
0-
#790000
0"
0#
05
0B
1-
#800000
0)
0;
0-
