BT_quartus/bcd mod 60 dem xuong/simulation/qsim/bcd_mod60.msim.vcd
$comment
	File created using the following command:
		vcd file bcd_mod60.msim.vcd -direction
$end
$date
	Sat Jun 12 22:20:18 2021
$end
$version
	ModelSim Version 10.1d
$end
$timescale
	1ps
$end
$scope module bcd_mod60_vlg_vec_tst $end
$var reg 1 ! ck $end
$var reg 1 " rs $end
$var wire 1 # bcd0 [3] $end
$var wire 1 $ bcd0 [2] $end
$var wire 1 % bcd0 [1] $end
$var wire 1 & bcd0 [0] $end
$var wire 1 ' bcd1 [3] $end
$var wire 1 ( bcd1 [2] $end
$var wire 1 ) bcd1 [1] $end
$var wire 1 * bcd1 [0] $end
$var wire 1 + sampler $end
$scope module i1 $end
$var wire 1 , gnd $end
$var wire 1 - vcc $end
$var wire 1 . unknown $end
$var tri1 1 / devclrn $end
$var tri1 1 0 devpor $end
$var tri1 1 1 devoe $end
$var wire 1 2 rs~combout $end
$var wire 1 3 ck~combout $end
$var wire 1 4 ck~clkctrl_outclk $end
$var wire 1 5 bcd1~4_combout $end
$var wire 1 6 bcd0~0_combout $end
$var wire 1 7 bcd0[0]~reg0_regout $end
$var wire 1 8 bcd0~1_combout $end
$var wire 1 9 bcd0[1]~reg0_regout $end
$var wire 1 : bcd0~2_combout $end
$var wire 1 ; bcd0[2]~reg0_regout $end
$var wire 1 < bcd1[0]~2_combout $end
$var wire 1 = bcd0~3_combout $end
$var wire 1 > bcd0[3]~reg0_regout $end
$var wire 1 ? bcd1[0]~3_combout $end
$var wire 1 @ bcd1[1]~reg0_regout $end
$var wire 1 A Add1~1_combout $end
$var wire 1 B bcd1~6_combout $end
$var wire 1 C bcd1[3]~reg0_regout $end
$var wire 1 D bcd1[0]~0_combout $end
$var wire 1 E bcd1~1_combout $end
$var wire 1 F bcd1[0]~reg0_regout $end
$var wire 1 G Add1~0_combout $end
$var wire 1 H bcd1~5_combout $end
$var wire 1 I bcd1[2]~reg0_regout $end
$upscope $end
$upscope $end
$enddefinitions $end
#0
$dumpvars
0!
0"
0&
0%
0$
0#
0*
0)
0(
0'
x+
0,
1-
x.
1/
10
11
02
03
04
15
16
07
18
09
1:
0;
1<
1=
0>
1?
0@
0A
0B
0C
0D
0E
0F
0G
1H
0I
$end
#10000
1!
13
14
0+
1I
1@
1>
1;
19
17
1D
1A
05
0?
0=
0<
06
1(
1)
1#
1$
1%
1&
1E
1=
#30000
0!
03
04
1+
#50000
1!
13
14
0+
07
08
16
0&
#70000
0!
03
04
1+
#90000
1!
13
14
0+
09
17
06
0%
1&
#110000
0!
03
04
1+
#130000
1!
13
14
0+
07
0:
18
16
0&
#150000
0!
03
04
1+
#170000
1!
13
14
0+
0;
19
17
06
0$
1%
1&
#190000
0!
03
04
1+
#210000
1!
13
14
0+
07
08
16
0&
#230000
0!
03
04
1+
#250000
1!
13
14
0+
09
17
06
0%
1&
#270000
0!
03
04
1+
#290000
1!
13
14
0+
07
1<
1:
18
16
0&
0=
#310000
0!
03
04
1+
#330000
1!
13
14
0+
0>
1;
19
17
1?
1=
0<
06
0#
1$
1%
1&
0?
0=
#350000
0!
03
04
1+
#370000
1!
13
14
0+
07
08
16
0&
#390000
0!
03
04
1+
#410000
1!
13
14
0+
09
17
06
0%
1&
#430000
0!
03
04
1+
#450000
1!
13
14
0+
07
0:
18
16
0&
#470000
0!
03
04
1+
#490000
1!
13
14
0+
0;
19
17
06
0$
1%
1&
#510000
0!
03
04
1+
#530000
1!
13
14
0+
07
08
16
0&
#550000
0!
03
04
1+
#570000
1!
13
14
0+
09
17
06
0%
1&
#590000
0!
03
04
1+
#610000
1!
13
14
0+
07
1<
1:
18
16
0&
1?
1=
#630000
0!
03
04
1+
#650000
1!
13
14
0+
1F
0@
1>
1;
19
17
0E
0?
0=
0<
06
1*
0)
1#
1$
1%
1&
1=
#670000
0!
03
04
1+
#690000
1!
13
14
0+
07
08
16
0&
#710000
0!
03
04
1+
#730000
1!
13
14
0+
09
17
06
0%
1&
#750000
0!
03
04
1+
#770000
1!
13
14
0+
07
0:
18
16
0&
#790000
0!
03
04
1+
