BT_quartus/cau 3 ck/simulation/qsim/cau3.msim.vcd
$comment
	File created using the following command:
		vcd file cau3.msim.vcd -direction
$end
$date
	Sat Jun 26 20:33:44 2021
$end
$version
	ModelSim Version 10.1d
$end
$timescale
	1ps
$end
$scope module cau3_vlg_vec_tst $end
$var reg 1 ! S $end
$var reg 1 " ck $end
$var reg 4 # data [3:0] $end
$var reg 1 $ load $end
$var reg 1 % rs $end
$var wire 1 & out [3] $end
$var wire 1 ' out [2] $end
$var wire 1 ( out [1] $end
$var wire 1 ) out [0] $end
$var wire 1 * sampler $end
$scope module i1 $end
$var wire 1 + gnd $end
$var wire 1 , vcc $end
$var wire 1 - unknown $end
$var tri1 1 . devclrn $end
$var tri1 1 / devpor $end
$var tri1 1 0 devoe $end
$var wire 1 1 S~combout $end
$var wire 1 2 ck~combout $end
$var wire 1 3 ck~clkctrl_outclk $end
$var wire 1 4 load~combout $end
$var wire 1 5 out~0_combout $end
$var wire 1 6 out[0]~reg0_regout $end
$var wire 1 7 rs~combout $end
$var wire 1 8 out~1_combout $end
$var wire 1 9 out~2_combout $end
$var wire 1 : out[1]~reg0_regout $end
$var wire 1 ; out~3_combout $end
$var wire 1 < out~4_combout $end
$var wire 1 = out[2]~reg0_regout $end
$var wire 1 > out~6_combout $end
$var wire 1 ? out~5_combout $end
$var wire 1 @ out~7_combout $end
$var wire 1 A out[3]~reg0_regout $end
$var wire 1 B data~combout [3] $end
$var wire 1 C data~combout [2] $end
$var wire 1 D data~combout [1] $end
$var wire 1 E data~combout [0] $end
$upscope $end
$upscope $end
$enddefinitions $end
#0
$dumpvars
0!
0"
b101 #
0$
0%
0)
0(
0'
0&
x*
0+
1,
x-
1.
1/
10
01
02
03
04
15
06
07
08
19
0:
1;
1<
0=
0>
1?
1@
0A
1E
0D
1C
0B
$end
#10000
1"
12
13
0*
1A
1=
1:
16
1>
0?
05
1&
1'
1(
1)
#30000
0"
02
03
1*
#40000
1$
1!
14
11
0*
0>
09
15
1?
0;
18
0@
#50000
1"
12
13
1*
0A
0:
0?
1;
08
0&
0(
#70000
0"
02
03
0*
#80000
0$
0!
04
01
1*
19
05
18
09
#90000
1"
12
13
0*
06
0;
08
15
0)
0<
19
#110000
0"
02
03
1*
#120000
1!
11
0*
1;
18
1<
09
#130000
1"
12
13
1*
16
08
05
1)
19
#150000
0"
02
03
0*
#170000
1"
12
13
1*
1:
06
15
1(
0)
#190000
0"
02
03
0*
#200000
1$
0!
14
01
1*
09
18
#210000
1"
12
13
0*
0:
16
0(
1)
#230000
0"
02
03
1*
#240000
0$
1!
04
11
0*
05
08
19
#250000
1"
12
13
1*
1:
06
15
1(
0)
#270000
0"
02
03
0*
#280000
0!
01
1*
18
09
#290000
1"
12
13
0*
0:
16
05
0(
1)
#310000
0"
02
03
1*
#320000
1%
1!
17
11
0*
0<
08
#330000
1"
12
13
1*
0=
06
0;
18
0'
0)
#350000
0"
02
03
0*
#370000
0!
1"
01
12
13
1*
1?
1;
08
#390000
0"
02
03
0*
#400000
0%
07
1*
1@
1<
19
15
#410000
1!
1"
11
12
13
0*
0?
0;
18
0@
0<
09
1A
1=
1:
16
1>
1?
05
1&
1'
1(
1)
#430000
0"
02
03
1*
#450000
1"
12
13
0*
0A
0=
0:
06
0>
0?
15
0&
0'
0(
0)
#470000
0"
02
03
1*
#480000
0!
01
0*
1?
1;
08
1@
1<
19
#490000
1"
12
13
1*
1A
1=
1:
16
1>
0?
05
1&
1'
1(
1)
#510000
0"
02
03
0*
#520000
1!
11
1*
1?
0;
18
0@
0<
09
#530000
1"
12
13
0*
0A
0=
0:
06
0>
0?
15
0&
0'
0(
0)
#550000
0"
02
03
1*
#560000
0!
01
0*
1?
1;
08
1@
1<
19
#570000
1"
12
13
1*
1A
1=
1:
16
1>
0?
05
1&
1'
1(
1)
#590000
0"
02
03
0*
#600000
1!
11
1*
1?
0;
18
0@
0<
09
#610000
1"
12
13
0*
0A
0=
0:
06
0>
0?
15
0&
0'
0(
0)
#630000
0"
02
03
1*
#650000
1"
12
13
0*
16
08
05
1)
19
#660000
0!
01
1*
18
09
#670000
0"
02
03
0*
