BT_quartus/cau 2 ck/simulation/qsim/cau2.msim.vcd
$comment
	File created using the following command:
		vcd file cau2.msim.vcd -direction
$end
$date
	Wed Jun 23 16:39:28 2021
$end
$version
	ModelSim Version 10.1d
$end
$timescale
	1ps
$end
$scope module cau2_vlg_vec_tst $end
$var reg 1 ! A0 $end
$var reg 1 " A1 $end
$var reg 1 # A2 $end
$var reg 1 $ A3 $end
$var reg 1 % BI_RBO $end
$var reg 1 & LT $end
$var reg 1 ' RBI $end
$var wire 1 ( a $end
$var wire 1 ) b $end
$var wire 1 * c $end
$var wire 1 + d $end
$var wire 1 , e $end
$var wire 1 - f $end
$var wire 1 . g $end
$var wire 1 / sampler $end
$scope module i1 $end
$var wire 1 0 gnd $end
$var wire 1 1 vcc $end
$var wire 1 2 unknown $end
$var tri1 1 3 devclrn $end
$var tri1 1 4 devpor $end
$var tri1 1 5 devoe $end
$var wire 1 6 A2~combout $end
$var wire 1 7 A0~combout $end
$var wire 1 8 A1~combout $end
$var wire 1 9 A3~combout $end
$var wire 1 : WideOr0~0_combout $end
$var wire 1 ; LT~combout $end
$var wire 1 < BI_RBO~combout $end
$var wire 1 = a~0_combout $end
$var wire 1 > WideOr1~0_combout $end
$var wire 1 ? b~0_combout $end
$var wire 1 @ WideOr2~0_combout $end
$var wire 1 A c~0_combout $end
$var wire 1 B WideOr3~0_combout $end
$var wire 1 C d~0_combout $end
$var wire 1 D WideOr4~0_combout $end
$var wire 1 E e~0_combout $end
$var wire 1 F WideOr5~0_combout $end
$var wire 1 G f~0_combout $end
$var wire 1 H WideOr6~0_combout $end
$var wire 1 I g~0_combout $end
$upscope $end
$upscope $end
$enddefinitions $end
#0
$dumpvars
0!
0"
0#
0$
0%
0&
0'
1(
1)
1*
1+
1,
1-
1.
x/
00
11
x2
13
14
15
06
07
08
09
0:
0;
0<
1=
0>
1?
0@
1A
0B
1C
0D
1E
0F
1G
0H
0I
$end
#10000
1%
1&
1'
1<
1;
0/
0G
0E
0C
0A
0?
0=
0-
0,
0+
0*
0)
0(
#30000
1!
17
1/
1F
1D
1B
1:
1G
1E
1C
1=
1-
1,
1+
1(
#50000
1"
0'
0!
18
07
0/
1H
0D
0B
1@
0:
1I
0E
0C
1A
0=
0,
0+
1*
0(
0.
#70000
1!
17
1/
1D
0@
1E
0A
1,
0*
#80000
1'
0/
#90000
1#
0"
0!
16
08
07
1/
0F
1B
1:
0G
1C
1=
0-
1+
1(
#100000
0'
0/
#110000
1!
17
1/
0B
1>
0:
0C
1?
0=
0+
1)
0(
#130000
1"
1'
0!
18
07
0/
0D
1:
0E
1=
0,
1(
#150000
1!
17
1/
0H
1F
1D
1B
0>
0:
0I
1G
1E
1C
0?
0=
1-
1,
1+
0)
0(
1.
#170000
1$
0#
0"
0'
0!
19
06
08
07
0/
1H
0F
0D
0B
1I
0G
0E
0C
0-
0,
0+
0.
#190000
1!
17
1/
1D
1B
1E
1C
1,
1+
#210000
1"
0!
18
07
0/
1F
0D
0B
1@
1>
1:
1G
0E
0C
1A
1?
1=
1-
0,
0+
1*
1)
1(
#230000
1!
17
1/
1D
0@
1E
0A
1,
0*
#250000
1#
0"
0!
16
08
07
0/
0F
1B
1@
0>
0G
1C
1A
0?
0-
1+
1*
0)
#260000
1'
1/
#270000
1!
17
0/
0B
1>
0:
0C
1?
0=
0+
1)
0(
#290000
1"
0!
18
07
1/
0D
1:
0E
1=
0,
1(
#310000
1!
17
0/
0H
1F
1D
1B
0I
1G
1E
1C
1-
1,
1+
1.
#330000
0$
0#
0"
0!
09
06
08
07
1/
0F
0@
0>
0:
0D
0B
0G
0A
0?
0=
0E
0C
0-
0*
0)
0(
0,
0+
#350000
0%
0&
0<
0;
0/
1G
1E
1C
1A
1?
1=
1-
1,
1+
1*
1)
1(
#390000
0'
1!
17
1/
1F
1:
#410000
1"
0!
18
07
0/
1H
1@
0:
#430000
1!
17
1/
0@
#440000
1'
0/
#450000
1#
0"
0!
0'
16
08
07
1/
0F
1:
#470000
1!
17
0/
1>
0:
#490000
1"
1'
0!
18
07
1/
1:
#510000
1!
17
0/
0H
1F
0>
0:
#530000
0#
0"
0!
06
08
07
1/
0F
#590000
1%
1<
0/
1I
0G
0E
0C
0A
0?
0=
0-
0,
0+
0*
0)
0(
0.
#600000
1!
17
1/
1F
1:
#620000
1"
0!
18
07
0/
1H
1@
0:
#640000
1!
17
1/
0@
#650000
0'
0/
#660000
1#
0"
0!
16
08
07
1/
0F
1:
#680000
1!
17
0/
1>
0:
#700000
1'
1"
0!
18
07
1/
1:
#720000
1!
17
0/
0H
1F
0>
0:
#740000
0#
0"
0!
06
08
07
1/
0F
#750000
0%
0<
0/
0I
1G
1E
1C
1A
1?
1=
1-
1,
1+
1*
1)
1(
1.
#780000
0'
1/
