BT_quartus/cau 4 ck/simulation/qsim/cau4.msim.vcd
$comment
	File created using the following command:
		vcd file cau4.msim.vcd -direction
$end
$date
	Thu Jun 24 21:42:52 2021
$end
$version
	ModelSim Version 10.1d
$end
$timescale
	1ps
$end
$scope module cau4_vlg_vec_tst $end
$var reg 1 ! DATA $end
$var reg 1 " ck $end
$var reg 1 # rs $end
$var wire 1 $ Y1 $end
$var wire 1 % Y2 $end
$var wire 1 & c [3] $end
$var wire 1 ' c [2] $end
$var wire 1 ( c [1] $end
$var wire 1 ) c [0] $end
$var wire 1 * sampler $end
$scope module i1 $end
$var wire 1 + gnd $end
$var wire 1 , vcc $end
$var wire 1 - unknown $end
$var tri1 1 . devclrn $end
$var tri1 1 / devpor $end
$var tri1 1 0 devoe $end
$var wire 1 1 DATA~combout $end
$var wire 1 2 ck~combout $end
$var wire 1 3 ck~clkctrl_outclk $end
$var wire 1 4 Mux2~2_combout $end
$var wire 1 5 Mux1~0_combout $end
$var wire 1 6 Mux1~1_combout $end
$var wire 1 7 rs~combout $end
$var wire 1 8 rs~clkctrl_outclk $end
$var wire 1 9 c[1]~reg0_regout $end
$var wire 1 : n[3]~0_combout $end
$var wire 1 ; Mux0~1_combout $end
$var wire 1 < Mux0~0_combout $end
$var wire 1 = Mux0~2_combout $end
$var wire 1 > c[2]~reg0_regout $end
$var wire 1 ? Mux2~3_combout $end
$var wire 1 @ Mux2~4_combout $end
$var wire 1 A c[0]~reg0_regout $end
$var wire 1 B n[3]~1_combout $end
$var wire 1 C c[3]~reg0_regout $end
$var wire 1 D Equal0~0_combout $end
$var wire 1 E Y2~0_combout $end
$upscope $end
$upscope $end
$enddefinitions $end
#0
$dumpvars
0!
0"
0#
0$
0%
0)
0(
0'
0&
x*
0+
1,
x-
1.
1/
10
01
02
03
04
05
06
07
08
09
0:
0;
0<
1=
0>
1?
1@
0A
0B
0C
0D
0E
$end
#10000
1"
1!
12
11
13
0*
0?
0=
14
1A
1>
0@
1;
15
1)
1'
1=
16
#30000
0"
02
03
1*
#50000
1"
12
13
0*
0A
19
1?
0;
06
1:
0)
1(
1@
0=
#70000
0"
02
03
1*
#90000
1"
12
13
0*
1A
0>
09
1<
0:
1)
0'
0(
#110000
0"
02
03
1*
#130000
1"
12
13
0*
#150000
0"
02
03
1*
#170000
1"
12
13
0*
#190000
0"
02
03
1*
#210000
1"
12
13
0*
#230000
0!
0"
01
02
03
1*
0?
05
04
0@
16
#250000
1!
1"
11
12
13
0*
1?
15
14
1@
06
0A
19
0?
0<
16
1:
0)
1(
#270000
0"
02
03
1*
#290000
1"
12
13
0*
1A
0@
1<
06
05
1)
1=
#310000
0"
02
03
1*
#320000
0!
01
0*
1?
04
1@
16
#330000
1"
12
13
1*
1>
0<
06
1'
#350000
0"
02
03
0*
#370000
1"
12
13
1*
09
1;
0:
0(
#390000
0"
02
03
0*
#400000
1!
11
1*
0?
15
14
0@
16
#410000
1"
12
13
0*
0A
19
1?
0;
06
1:
0)
1(
1@
0=
#430000
0"
02
03
1*
#450000
1"
12
13
0*
1A
0>
09
1<
0:
1)
0'
0(
#470000
0"
02
03
1*
#490000
1"
12
13
0*
#510000
0"
02
03
1*
#530000
1"
12
13
0*
#550000
0"
02
03
1*
#570000
1"
12
13
0*
#590000
0"
02
03
1*
#610000
1#
1"
17
12
13
18
0*
0A
0?
0<
16
05
0)
06
#620000
0!
01
1*
1?
1=
04
#630000
0"
02
03
0*
#650000
1"
12
13
1*
#670000
0"
02
03
0*
#680000
1!
11
1*
0?
0=
14
#690000
1"
12
13
0*
#700000
0#
07
08
1*
#710000
0"
02
03
0*
#730000
1"
12
13
1*
1A
0@
1?
1<
15
1)
1@
#750000
0"
02
03
0*
#770000
1"
12
13
1*
#780000
0!
01
0*
0?
05
04
0@
16
#790000
0"
02
03
1*
#810000
1"
12
13
0*
0A
19
1@
0<
06
1:
0)
1(
1=
#830000
0"
02
03
1*
#850000
1"
12
13
0*
1A
1>
09
0@
1?
1;
0:
1)
1'
0(
1@
#870000
0"
02
03
1*
