BT_quartus/cau 5 ck/simulation/qsim/cau5.msim.vcd
$comment
	File created using the following command:
		vcd file cau5.msim.vcd -direction
$end
$date
	Fri Jun 25 17:34:26 2021
$end
$version
	ModelSim Version 10.1d
$end
$timescale
	1ps
$end
$scope module cau5_vlg_vec_tst $end
$var reg 1 ! ck $end
$var reg 1 " rs $end
$var wire 1 # A [7] $end
$var wire 1 $ A [6] $end
$var wire 1 % A [5] $end
$var wire 1 & A [4] $end
$var wire 1 ' A [3] $end
$var wire 1 ( A [2] $end
$var wire 1 ) A [1] $end
$var wire 1 * A [0] $end
$var wire 1 + B [7] $end
$var wire 1 , B [6] $end
$var wire 1 - B [5] $end
$var wire 1 . B [4] $end
$var wire 1 / B [3] $end
$var wire 1 0 B [2] $end
$var wire 1 1 B [1] $end
$var wire 1 2 B [0] $end
$var wire 1 3 C [7] $end
$var wire 1 4 C [6] $end
$var wire 1 5 C [5] $end
$var wire 1 6 C [4] $end
$var wire 1 7 C [3] $end
$var wire 1 8 C [2] $end
$var wire 1 9 C [1] $end
$var wire 1 : C [0] $end
$var wire 1 ; D [7] $end
$var wire 1 < D [6] $end
$var wire 1 = D [5] $end
$var wire 1 > D [4] $end
$var wire 1 ? D [3] $end
$var wire 1 @ D [2] $end
$var wire 1 A D [1] $end
$var wire 1 B D [0] $end
$var wire 1 C E [7] $end
$var wire 1 D E [6] $end
$var wire 1 E E [5] $end
$var wire 1 F E [4] $end
$var wire 1 G E [3] $end
$var wire 1 H E [2] $end
$var wire 1 I E [1] $end
$var wire 1 J E [0] $end
$var wire 1 K sampler $end
$scope module i1 $end
$var wire 1 L gnd $end
$var wire 1 M vcc $end
$var wire 1 N unknown $end
$var tri1 1 O devclrn $end
$var tri1 1 P devpor $end
$var tri1 1 Q devoe $end
$var wire 1 R ck~combout $end
$var wire 1 S ck~clkctrl_outclk $end
$var wire 1 T rs~combout $end
$var wire 1 U c~24_combout $end
$var wire 1 V c.S6~regout $end
$var wire 1 W c~22_combout $end
$var wire 1 X c.S7~regout $end
$var wire 1 Y c~30_combout $end
$var wire 1 Z c.S8~regout $end
$var wire 1 [ c~31_combout $end
$var wire 1 \ c.S9~regout $end
$var wire 1 ] c~28_combout $end
$var wire 1 ^ c.S10~regout $end
$var wire 1 _ c~29_combout $end
$var wire 1 ` c.S11~regout $end
$var wire 1 a c~27_combout $end
$var wire 1 b c.tat~regout $end
$var wire 1 c c~19_combout $end
$var wire 1 d c.S0~regout $end
$var wire 1 e c~20_combout $end
$var wire 1 f c.S1~regout $end
$var wire 1 g c~25_combout $end
$var wire 1 h c.S2~regout $end
$var wire 1 i c~26_combout $end
$var wire 1 j c.S3~regout $end
$var wire 1 k c~23_combout $end
$var wire 1 l c.S4~regout $end
$var wire 1 m c~21_combout $end
$var wire 1 n c.S5~regout $end
$var wire 1 o WideOr18~0_combout $end
$var wire 1 p WideOr6~combout $end
$var wire 1 q WideOr5~combout $end
$var wire 1 r WideOr4~combout $end
$var wire 1 s WideOr3~combout $end
$var wire 1 t WideOr0~2_combout $end
$var wire 1 u WideOr2~combout $end
$var wire 1 v WideOr1~5_combout $end
$var wire 1 w WideOr0~combout $end
$var wire 1 x WideOr10~0_combout $end
$var wire 1 y WideOr1~4_combout $end
$var wire 1 z WideOr13~combout $end
$var wire 1 { WideOr12~combout $end
$var wire 1 | WideOr11~combout $end
$var wire 1 } WideOr10~1_combout $end
$var wire 1 ~ WideOr9~combout $end
$var wire 1 !! WideOr8~combout $end
$var wire 1 "! WideOr7~combout $end
$var wire 1 #! WideOr12~0_combout $end
$var wire 1 $! WideOr20~combout $end
$var wire 1 %! WideOr19~combout $end
$var wire 1 &! WideOr17~combout $end
$var wire 1 '! WideOr14~0_combout $end
$var wire 1 (! WideOr16~combout $end
$var wire 1 )! WideOr15~combout $end
$var wire 1 *! WideOr14~combout $end
$var wire 1 +! WideOr0~3_combout $end
$var wire 1 ,! WideOr27~combout $end
$var wire 1 -! WideOr26~combout $end
$var wire 1 .! WideOr25~combout $end
$var wire 1 /! WideOr24~0_combout $end
$var wire 1 0! WideOr23~combout $end
$var wire 1 1! WideOr22~combout $end
$var wire 1 2! WideOr21~combout $end
$var wire 1 3! WideOr16~4_combout $end
$var wire 1 4! WideOr34~combout $end
$var wire 1 5! WideOr33~combout $end
$var wire 1 6! WideOr32~combout $end
$var wire 1 7! WideOr31~combout $end
$var wire 1 8! WideOr30~combout $end
$var wire 1 9! WideOr29~4_combout $end
$var wire 1 :! WideOr28~combout $end
$upscope $end
$upscope $end
$enddefinitions $end
#0
$dumpvars
0!
0"
0*
0)
0(
0'
0&
0%
0$
0#
02
01
00
0/
0.
0-
0,
0+
0:
09
08
07
06
05
04
03
0B
0A
0@
0?
0>
0=
0<
0;
0J
0I
0H
0G
0F
0E
0D
0C
xK
0L
1M
xN
1O
1P
1Q
0R
0S
0T
0U
0V
0W
0X
0Y
0Z
0[
0\
0]
0^
0_
0`
1a
0b
1c
0d
0e
0f
0g
0h
0i
0j
0k
0l
0m
0n
1o
0p
0q
0r
0s
0t
1u
1v
1w
1x
1y
0z
0{
0|
0}
1~
0!!
1"!
1#!
0$!
0%!
0&!
0'!
1(!
0)!
1*!
1+!
0,!
0-!
0.!
0/!
10!
01!
12!
13!
04!
05!
06!
07!
18!
19!
1:!
$end
#20000
1!
1R
1S
0K
1d
1b
1s
1q
1p
1e
1t
0c
0w
0u
1'
1)
1*
1$
1&
#40000
0!
0R
0S
1K
#60000
1!
1R
1S
0K
1f
0d
1}
1{
0y
0v
1g
0"!
0~
0q
0e
1z
1/
11
0)
1%
1,
1.
12
#80000
0!
0R
0S
1K
#100000
1!
1R
1S
0K
1h
0f
1&!
1%!
0x
1r
1q
1i
1'!
0{
1y
1v
0p
0g
1$!
1!!
0*!
0(!
17
19
1(
1)
01
0*
0%
1:
1-
14
16
#120000
0!
0R
0S
1K
#140000
1!
1R
1S
0K
1j
0h
1/!
1-!
0#!
1|
1{
1u
1k
02!
00!
0%!
1x
0s
0r
0q
0i
1,!
1)!
0!!
0z
1?
1A
10
11
09
0'
0(
0)
0&
1<
1>
1B
15
0-
02
#160000
0!
0R
0S
1K
#180000
1!
1R
1S
0K
1l
0j
17!
15!
14!
11!
1%!
1~
1r
1q
0o
1m
0:!
08!
0-!
1#!
0}
0|
0{
0u
0k
0v
1p
0)!
0$!
1G
1I
1J
1=
19
1(
1)
0A
0/
00
01
0.
18
1D
1F
1&
1*
05
0:
1%
#200000
0!
0R
0S
1K
#220000
1!
1R
1S
0K
1n
0l
03!
1.!
1-!
1(!
1!!
1|
1{
0y
1w
1s
1U
05!
04!
01!
0,!
0&!
0%!
0~
0q
1o
0m
09!
14!
1z
1@
1A
1-
10
11
1'
0I
0J
0=
0B
07
09
0)
06
0$
1.
08
1J
12
1E
#240000
0!
0R
0S
1K
#260000
1!
1R
1S
0K
0n
1V
13!
0/!
0.!
0-!
0(!
0!!
0{
1y
0w
1v
0s
0r
0p
0U
16!
15!
10!
1)!
1%!
1"!
1}
0x
1q
0o
1W
19!
04!
1$!
1!!
0v
1p
0?
0@
0A
0-
01
0'
0(
0*
1H
1I
15
19
1/
1)
16
1$
0%
0>
0,
18
0J
1:
1-
1*
0E
1%
#280000
0!
0R
0S
1K
#290000
1"
1T
0K
0a
0W
#300000
1!
1R
1S
1K
0b
0V
0'!
0t
07!
06!
05!
00!
0)!
0%!
0"!
0}
0|
1x
0q
1o
1:!
18!
12!
10!
1*!
1(!
1"!
1~
1w
1u
0$!
0!!
0z
1v
0p
0G
0H
0I
05
09
0/
00
0)
1>
1,
08
0:
0-
02
0*
0D
0F
0<
0>
04
06
0,
0.
0$
0&
0%
#320000
0!
0R
0S
0K
#340000
1!
1R
1S
1K
#360000
0!
0R
0S
0K
#380000
1!
1R
1S
1K
#400000
0"
0!
0T
0R
0S
0K
1c
1a
#420000
1!
1R
1S
1K
1d
1b
1s
1q
1p
1e
1t
0c
0w
0u
1'
1)
1*
1$
1&
#440000
0!
0R
0S
0K
#460000
1!
1R
1S
1K
1f
0d
1}
1{
0y
0v
1g
0"!
0~
0q
0e
1z
1/
11
0)
1%
1,
1.
12
#480000
0!
0R
0S
0K
#500000
1!
1R
1S
1K
1h
0f
1&!
1%!
0x
1r
1q
1i
1'!
0{
1y
1v
0p
0g
1$!
1!!
0*!
0(!
17
19
1(
1)
01
0*
0%
1:
1-
14
16
#520000
0!
0R
0S
0K
#540000
1!
1R
1S
1K
1j
0h
1/!
1-!
0#!
1|
1{
1u
1k
02!
00!
0%!
1x
0s
0r
0q
0i
1,!
1)!
0!!
0z
1?
1A
10
11
09
0'
0(
0)
0&
1<
1>
1B
15
0-
02
#560000
0!
0R
0S
0K
#580000
1!
1R
1S
1K
1l
0j
17!
15!
14!
11!
1%!
1~
1r
1q
0o
1m
0:!
08!
0-!
1#!
0}
0|
0{
0u
0k
0v
1p
0)!
0$!
1G
1I
1J
1=
19
1(
1)
0A
0/
00
01
0.
18
1D
1F
1&
1*
05
0:
1%
#600000
0!
0R
0S
0K
#620000
1!
1R
1S
1K
1n
0l
03!
1.!
1-!
1(!
1!!
1|
1{
0y
1w
1s
1U
05!
04!
01!
0,!
0&!
0%!
0~
0q
1o
0m
09!
14!
1z
1@
1A
1-
10
11
1'
0I
0J
0=
0B
07
09
0)
06
0$
1.
08
1J
12
1E
#640000
0!
0R
0S
0K
#660000
1!
1R
1S
1K
0n
1V
13!
0/!
0.!
0-!
0(!
0!!
0{
1y
0w
1v
0s
0r
0p
0U
16!
15!
10!
1)!
1%!
1"!
1}
0x
1q
0o
1W
19!
04!
1$!
1!!
0v
1p
0?
0@
0A
0-
01
0'
0(
0*
1H
1I
15
19
1/
1)
16
1$
0%
0>
0,
18
0J
1:
1-
1*
0E
1%
#680000
0!
0R
0S
0K
#700000
1!
1R
1S
1K
1X
0V
18!
11!
1.!
1-!
1*!
1&!
0#!
1{
1Y
07!
06!
05!
00!
0)!
0%!
0"!
0}
0|
1x
0q
0W
1,!
1)!
1=
1@
1A
17
11
0G
0H
0I
05
09
0/
00
0)
0F
04
1>
1,
1B
15
#710000
0!
0R
0S
0K
