BT_quartus/tuan anh/simulation/qsim/cau5.msim.vcd
$comment
	File created using the following command:
		vcd file cau5.msim.vcd -direction
$end
$date
	Fri Jun 25 22:32:25 2021
$end
$version
	ModelSim Version 10.1d
$end
$timescale
	1ps
$end
$scope module cau5_vlg_vec_tst $end
$var reg 1 ! ck $end
$var reg 1 " rs $end
$var reg 1 # x $end
$var wire 1 $ ht [2] $end
$var wire 1 % ht [1] $end
$var wire 1 & ht [0] $end
$var wire 1 ' y1 $end
$var wire 1 ( y2 $end
$var wire 1 ) sampler $end
$scope module i1 $end
$var wire 1 * gnd $end
$var wire 1 + vcc $end
$var wire 1 , unknown $end
$var tri1 1 - devclrn $end
$var tri1 1 . devpor $end
$var tri1 1 / devoe $end
$var wire 1 0 x~combout $end
$var wire 1 1 ck~combout $end
$var wire 1 2 ck~clkctrl_outclk $end
$var wire 1 3 Mux1~0_combout $end
$var wire 1 4 rs~combout $end
$var wire 1 5 rs~clkctrl_outclk $end
$var wire 1 6 ht[1]~reg0_regout $end
$var wire 1 7 Mux0~0_combout $end
$var wire 1 8 ht[2]~reg0_regout $end
$var wire 1 9 Mux2~0_combout $end
$var wire 1 : ht[0]~reg0_regout $end
$var wire 1 ; Equal0~0_combout $end
$var wire 1 < Equal1~0_combout $end
$upscope $end
$upscope $end
$enddefinitions $end
#0
$dumpvars
0!
0"
0#
0&
0%
0$
0'
0(
x)
0*
1+
x,
1-
1.
1/
00
01
02
03
04
05
06
07
08
09
0:
0;
0<
$end
#10000
1!
11
12
0)
#20000
1#
10
1)
19
#30000
0!
01
02
0)
#50000
1!
11
12
1)
1:
13
1&
#70000
0#
0!
00
01
02
0)
09
#90000
1!
11
12
1)
0:
16
19
17
03
0&
1%
#100000
1#
10
0)
07
#110000
0!
01
02
1)
#120000
0#
00
0)
17
#130000
1!
11
12
1)
1:
18
06
09
07
13
1&
1$
0%
#150000
0!
01
02
0)
#160000
1#
10
1)
17
#170000
1!
11
12
0)
0:
16
1<
19
07
0&
1%
1(
#190000
0!
01
02
1)
#210000
1!
11
12
0)
1:
08
0<
1&
0$
0(
#230000
0!
01
02
1)
#250000
1!
11
12
0)
#270000
0!
01
02
1)
#290000
1!
11
12
0)
#310000
0#
0!
00
01
02
1)
09
17
03
#330000
1#
1!
10
11
12
0)
19
07
13
0:
18
06
03
0&
1$
0%
#350000
0#
0!
00
01
02
1)
17
13
#370000
1!
11
12
0)
1:
16
1;
09
07
03
1&
1%
1'
#390000
0!
01
02
1)
#410000
1#
1!
10
11
12
0)
17
13
0:
08
06
0;
19
07
03
0&
0$
0%
0'
#430000
0!
01
02
1)
#440000
1"
14
15
0)
#450000
1!
11
12
1)
#470000
0#
0!
00
01
02
0)
09
#490000
1!
11
12
1)
#500000
1#
10
0)
19
#510000
0!
01
02
1)
#530000
1!
11
12
0)
#550000
0"
0!
04
01
02
05
1)
#560000
0#
00
0)
09
#570000
1!
1#
11
10
12
1)
19
#590000
0!
01
02
0)
#610000
0#
1!
00
11
12
1)
09
1:
13
1&
#630000
0!
01
02
0)
#650000
1#
1!
10
11
12
1)
19
0:
16
03
0&
1%
#670000
0!
01
02
0)
#740000
0#
00
1)
17
