BT_quartus/fsm1011/simulation/qsim/fsm1011.msim.vcd
$comment
	File created using the following command:
		vcd file fsm1011.msim.vcd -direction
$end
$date
	Fri Apr 30 21:29:07 2021
$end
$version
	ModelSim Version 10.1d
$end
$timescale
	1ps
$end
$scope module fsm1011_vlg_vec_tst $end
$var reg 1 ! ck $end
$var reg 1 " rs $end
$var reg 1 # x $end
$var wire 1 $ y $end
$var wire 1 % sampler $end
$scope module i1 $end
$var wire 1 & gnd $end
$var wire 1 ' vcc $end
$var wire 1 ( unknown $end
$var tri1 1 ) devclrn $end
$var tri1 1 * devpor $end
$var tri1 1 + devoe $end
$var wire 1 , ck~combout $end
$var wire 1 - ck~clkctrl_outclk $end
$var wire 1 . x~combout $end
$var wire 1 / rs~combout $end
$var wire 1 0 current_state~12_combout $end
$var wire 1 1 current_state.start~regout $end
$var wire 1 2 current_state~11_combout $end
$var wire 1 3 current_state.s10~regout $end
$var wire 1 4 current_state~10_combout $end
$var wire 1 5 current_state.s101~regout $end
$var wire 1 6 current_state~9_combout $end
$var wire 1 7 current_state.s1011~regout $end
$upscope $end
$upscope $end
$enddefinitions $end
#0
$dumpvars
0!
0"
0#
0$
x%
0&
1'
x(
1)
1*
1+
0,
0-
0.
0/
00
01
02
03
04
05
06
07
$end
#10000
1!
1,
1-
0%
#20000
1#
0!
1.
0,
0-
1%
#30000
1!
1,
1-
0%
#40000
0!
0,
0-
1%
#50000
0#
1!
0.
1,
1-
0%
#60000
0!
0,
0-
1%
#70000
1#
1!
1.
1,
1-
0%
#80000
0!
0,
0-
1%
#90000
1!
1,
1-
0%
#100000
0!
0,
0-
1%
#110000
1!
1,
1-
0%
#120000
0!
0,
0-
1%
#130000
0#
1!
0.
1,
1-
0%
#140000
0!
0,
0-
1%
#150000
1!
1,
1-
0%
#160000
0!
0,
0-
1%
#170000
1!
1,
1-
0%
#180000
0!
0,
0-
1%
#190000
1!
1,
1-
0%
#200000
0!
0,
0-
1%
#210000
1!
1,
1-
0%
#220000
0!
0,
0-
1%
#230000
1!
1,
1-
0%
#240000
0!
0,
0-
1%
#250000
1!
1,
1-
0%
#260000
0!
0,
0-
1%
#270000
1!
1,
1-
0%
#280000
0!
0,
0-
1%
#290000
1!
1,
1-
0%
#300000
0!
0,
0-
1%
#310000
1!
1,
1-
0%
#320000
0!
0,
0-
1%
#330000
1!
1,
1-
0%
#340000
0!
0,
0-
1%
#350000
1!
1,
1-
0%
#360000
0!
0,
0-
1%
#370000
1!
1,
1-
0%
#380000
1"
0!
1/
0,
0-
1%
#390000
1!
1,
1-
0%
#400000
0"
0!
0/
0,
0-
1%
#410000
1!
1,
1-
0%
#420000
0!
0,
0-
1%
